<?xml version="1.0" encoding="UTF-8"?>
<!DOCTYPE svg PUBLIC "-//W3C//DTD SVG 1.1//EN" "http://www.w3.org/Graphics/SVG/1.1/DTD/svg11.dtd">
<svg version="1.1" id="Channel_x5F_1_x5F__x28_Israel_x29__x5F_Logo" xmlns="http://www.w3.org/2000/svg" xmlns:xlink="http://www.w3.org/1999/xlink" x="0px" y="0px" viewBox="0 0 1024 1024" enable-background="new 0 0 1024 1024" xml:space="preserve">
<path id="Channel_x5F_1_x5F__x28_Israel_x29__x5F_Logo_1_" d="M1024,491.7l-41.5,0.1c-0.2-277.3-239-484.5-486-484.5  C199.1,7.4,0,244.4,0,492.3C0,833.3,267.2,1021,496.4,1021c288,0,527.6-207.6,527.6-528.7C1024,492.1,1024,491.9,1024,491.7z   M90.4,492.3c0-271.7,241.6-430.2,406-430.2c365.3,0,454.7,303.3,454.8,429.9c0,0-53.6,0.2-53.6,0.3c0,257.2-196.2,418-401.9,418  l0,0C268.4,909.9,90.4,733.4,90.4,492.3z M866.2,492.2l-34.8,0.1C831.2,306.1,662.3,160,496.4,160c-199.6,0-338.5,166-338.5,332.5  c0,297.5,248.7,370.6,338.5,370.6c225.1,0,369.8-160.6,369.8-370.6C866.2,492.4,866.2,492.3,866.2,492.2z M237.6,492.5  c0-150.4,146.6-271.6,258.8-271.6c266.1,0,301.9,229.4,301.9,271.4c-1.8,0-48.1,0.1-48.1,0.2c0,187.7-147.4,270.3-254.3,270.3l0,0  C358.1,762.8,237.6,654.4,237.6,492.5z M719.9,492.8l-33.8,0c-0.1-97.5-88.2-182.5-189.2-182.5c-120.4,0-194.5,95.6-194.5,182.7  c0,200,168.7,223.4,194.5,223.4c172.5,0,223-128.9,223-223.4C719.9,492.9,719.9,492.9,719.9,492.8z M383.9,493  c0-49.7,37-117.7,113-126.6c150-17.5,153.5,130,154.6,126.5c0,0-47.7,0.1-47.7,0.1c0,120.4-101,124.2-107.1,124.2l0,0  C463.6,617.1,383.9,601,383.9,493z"/>
</svg>